\relax 
\@writefile{toc}{\contentsline {section}{\numberline {1}Abstract}{1}}
\@writefile{toc}{\contentsline {section}{\numberline {2}Orthorhombic media}{1}}
\newlabel{eq:1}{{5}{2}}
\newlabel{eq:1m}{{6}{2}}
\@writefile{lof}{\contentsline {figure}{\numberline {1}{\ignorespaces Staggered grids for system 5\hbox {}.}}{3}}
\newlabel{fig:cube}{{1}{3}}
\@writefile{toc}{\contentsline {section}{\numberline {3}Transversely isotropic media}{3}}
\citation{Carcione}
\newlabel{eq:2}{{22}{4}}
\newlabel{eq:1f}{{26}{4}}
\newlabel{eq:dispersion}{{28}{4}}
\citation{Yang}
\@writefile{lof}{\contentsline {figure}{\numberline {2}{\ignorespaces Staggered grids for system 22\hbox {}.}}{5}}
\newlabel{fig:rec}{{2}{5}}
\@writefile{toc}{\contentsline {section}{\numberline {4}Isotropic media}{5}}
\@writefile{toc}{\contentsline {section}{\numberline {5}Constant Q approximation for viscoelastic media}{5}}
\newlabel{fig:sx00}{{3(a)}{6}}
\newlabel{sub@fig:sx00}{{(a)}{6}}
\newlabel{fig:sz00}{{3(b)}{6}}
\newlabel{sub@fig:sz00}{{(b)}{6}}
\newlabel{fig:sxz00}{{3(c)}{6}}
\newlabel{sub@fig:sxz00}{{(c)}{6}}
\newlabel{fig:vx00}{{3(d)}{6}}
\newlabel{sub@fig:vx00}{{(d)}{6}}
\newlabel{fig:vz00}{{3(e)}{6}}
\newlabel{sub@fig:vz00}{{(e)}{6}}
\newlabel{fig:phase00}{{3(f)}{6}}
\newlabel{sub@fig:phase00}{{(f)}{6}}
\newlabel{fig:Pvel00}{{3(g)}{6}}
\newlabel{sub@fig:Pvel00}{{(g)}{6}}
\newlabel{fig:Pslow00}{{3(h)}{6}}
\newlabel{sub@fig:Pslow00}{{(h)}{6}}
\newlabel{fig:group00}{{3(i)}{6}}
\newlabel{sub@fig:group00}{{(i)}{6}}
\newlabel{fig:Svel00}{{3(j)}{6}}
\newlabel{sub@fig:Svel00}{{(j)}{6}}
\newlabel{fig:Sslow00}{{3(k)}{6}}
\newlabel{sub@fig:Sslow00}{{(k)}{6}}
\@writefile{lof}{\contentsline {figure}{\numberline {3}{\ignorespaces 3(a)\hbox {} $\sigma _{xx}$, 3(b)\hbox {} $\sigma _{zz}$, 3(c)\hbox {} $\sigma _{xz}$, 3(d)\hbox {} $v_x$, 3(e)\hbox {} $v_z$, 3(f)\hbox {} phase velocity and slowness surfaces, 3(g)\hbox {} P velocity surfaces, 3(h)\hbox {} P slowness surfaces, 3(i)\hbox {} group velocity and slowness surfaces, 3(j)\hbox {} S velocity surfaces, and 3(k)\hbox {} S slowness surfaces for $\epsilon =0.2$ and $\delta =1$. $v_{PV}=2000$ m/s, $v_{SV}=1200$ m/s, and $\rho =1000$ kg/m\textsuperscript  {3} remain unchanged for all simulations.}}{6}}
\@writefile{lof}{\contentsline {subfigure}{\numberline{(a)}{\ignorespaces {}}}{6}}
\@writefile{lof}{\contentsline {subfigure}{\numberline{(b)}{\ignorespaces {}}}{6}}
\@writefile{lof}{\contentsline {subfigure}{\numberline{(c)}{\ignorespaces {}}}{6}}
\@writefile{lof}{\contentsline {subfigure}{\numberline{(d)}{\ignorespaces {}}}{6}}
\@writefile{lof}{\contentsline {subfigure}{\numberline{(e)}{\ignorespaces {}}}{6}}
\@writefile{lof}{\contentsline {subfigure}{\numberline{(f)}{\ignorespaces {}}}{6}}
\@writefile{lof}{\contentsline {subfigure}{\numberline{(g)}{\ignorespaces {}}}{6}}
\@writefile{lof}{\contentsline {subfigure}{\numberline{(h)}{\ignorespaces {}}}{6}}
\@writefile{lof}{\contentsline {subfigure}{\numberline{(i)}{\ignorespaces {}}}{6}}
\@writefile{lof}{\contentsline {subfigure}{\numberline{(j)}{\ignorespaces {}}}{6}}
\@writefile{lof}{\contentsline {subfigure}{\numberline{(k)}{\ignorespaces {}}}{6}}
\newlabel{fig:sx02}{{4(a)}{7}}
\newlabel{sub@fig:sx02}{{(a)}{7}}
\newlabel{fig:sz02}{{4(b)}{7}}
\newlabel{sub@fig:sz02}{{(b)}{7}}
\newlabel{fig:sxz02}{{4(c)}{7}}
\newlabel{sub@fig:sxz02}{{(c)}{7}}
\newlabel{fig:vx02}{{4(d)}{7}}
\newlabel{sub@fig:vx02}{{(d)}{7}}
\newlabel{fig:vz02}{{4(e)}{7}}
\newlabel{sub@fig:vz02}{{(e)}{7}}
\newlabel{fig:phase02}{{4(f)}{7}}
\newlabel{sub@fig:phase02}{{(f)}{7}}
\newlabel{fig:Pvel02}{{4(g)}{7}}
\newlabel{sub@fig:Pvel02}{{(g)}{7}}
\newlabel{fig:Pslow02}{{4(h)}{7}}
\newlabel{sub@fig:Pslow02}{{(h)}{7}}
\newlabel{fig:group02}{{4(i)}{7}}
\newlabel{sub@fig:group02}{{(i)}{7}}
\newlabel{fig:Svel02}{{4(j)}{7}}
\newlabel{sub@fig:Svel02}{{(j)}{7}}
\newlabel{fig:Sslow02}{{4(k)}{7}}
\newlabel{sub@fig:Sslow02}{{(k)}{7}}
\@writefile{lof}{\contentsline {figure}{\numberline {4}{\ignorespaces 4(a)\hbox {} $\sigma _{xx}$, 4(b)\hbox {} $\sigma _{zz}$, 4(c)\hbox {} $\sigma _{xz}$, 4(d)\hbox {} $v_x$, 4(e)\hbox {} $v_z$, 4(f)\hbox {} phase velocity and slowness surfaces, 4(g)\hbox {} P velocity surfaces, 4(h)\hbox {} P slowness surfaces, 4(i)\hbox {} group velocity and slowness surfaces, 4(j)\hbox {} S velocity surfaces, and 4(k)\hbox {} S slowness surfaces for $\epsilon =0.2$ and $\delta =0.1$.}}{7}}
\@writefile{lof}{\contentsline {subfigure}{\numberline{(a)}{\ignorespaces {}}}{7}}
\@writefile{lof}{\contentsline {subfigure}{\numberline{(b)}{\ignorespaces {}}}{7}}
\@writefile{lof}{\contentsline {subfigure}{\numberline{(c)}{\ignorespaces {}}}{7}}
\@writefile{lof}{\contentsline {subfigure}{\numberline{(d)}{\ignorespaces {}}}{7}}
\@writefile{lof}{\contentsline {subfigure}{\numberline{(e)}{\ignorespaces {}}}{7}}
\@writefile{lof}{\contentsline {subfigure}{\numberline{(f)}{\ignorespaces {}}}{7}}
\@writefile{lof}{\contentsline {subfigure}{\numberline{(g)}{\ignorespaces {}}}{7}}
\@writefile{lof}{\contentsline {subfigure}{\numberline{(h)}{\ignorespaces {}}}{7}}
\@writefile{lof}{\contentsline {subfigure}{\numberline{(i)}{\ignorespaces {}}}{7}}
\@writefile{lof}{\contentsline {subfigure}{\numberline{(j)}{\ignorespaces {}}}{7}}
\@writefile{lof}{\contentsline {subfigure}{\numberline{(k)}{\ignorespaces {}}}{7}}
\newlabel{fig:sx04}{{5(a)}{8}}
\newlabel{sub@fig:sx04}{{(a)}{8}}
\newlabel{fig:sz04}{{5(b)}{8}}
\newlabel{sub@fig:sz04}{{(b)}{8}}
\newlabel{fig:sxz04}{{5(c)}{8}}
\newlabel{sub@fig:sxz04}{{(c)}{8}}
\newlabel{fig:vx04}{{5(d)}{8}}
\newlabel{sub@fig:vx04}{{(d)}{8}}
\newlabel{fig:vz04}{{5(e)}{8}}
\newlabel{sub@fig:vz04}{{(e)}{8}}
\newlabel{fig:phase04}{{5(f)}{8}}
\newlabel{sub@fig:phase04}{{(f)}{8}}
\newlabel{fig:Pvel04}{{5(g)}{8}}
\newlabel{sub@fig:Pvel04}{{(g)}{8}}
\newlabel{fig:Pslow04}{{5(h)}{8}}
\newlabel{sub@fig:Pslow04}{{(h)}{8}}
\newlabel{fig:group04}{{5(i)}{8}}
\newlabel{sub@fig:group04}{{(i)}{8}}
\newlabel{fig:Svel04}{{5(j)}{8}}
\newlabel{sub@fig:Svel04}{{(j)}{8}}
\newlabel{fig:Sslow04}{{5(k)}{8}}
\newlabel{sub@fig:Sslow04}{{(k)}{8}}
\@writefile{lof}{\contentsline {figure}{\numberline {5}{\ignorespaces 5(a)\hbox {} $\sigma _{xx}$, 5(b)\hbox {} $\sigma _{zz}$, 5(c)\hbox {} $\sigma _{xz}$, 5(d)\hbox {} $v_x$, 5(e)\hbox {} $v_z$, 5(f)\hbox {} phase velocity and slowness surfaces, 5(g)\hbox {} P velocity surfaces, 5(h)\hbox {} P slowness surfaces, 5(i)\hbox {} group velocity and slowness surfaces, 5(j)\hbox {} S velocity surfaces, and 5(k)\hbox {} S slowness surfaces for $\epsilon =0.2$ and $\delta =-0.3$.}}{8}}
\@writefile{lof}{\contentsline {subfigure}{\numberline{(a)}{\ignorespaces {}}}{8}}
\@writefile{lof}{\contentsline {subfigure}{\numberline{(b)}{\ignorespaces {}}}{8}}
\@writefile{lof}{\contentsline {subfigure}{\numberline{(c)}{\ignorespaces {}}}{8}}
\@writefile{lof}{\contentsline {subfigure}{\numberline{(d)}{\ignorespaces {}}}{8}}
\@writefile{lof}{\contentsline {subfigure}{\numberline{(e)}{\ignorespaces {}}}{8}}
\@writefile{lof}{\contentsline {subfigure}{\numberline{(f)}{\ignorespaces {}}}{8}}
\@writefile{lof}{\contentsline {subfigure}{\numberline{(g)}{\ignorespaces {}}}{8}}
\@writefile{lof}{\contentsline {subfigure}{\numberline{(h)}{\ignorespaces {}}}{8}}
\@writefile{lof}{\contentsline {subfigure}{\numberline{(i)}{\ignorespaces {}}}{8}}
\@writefile{lof}{\contentsline {subfigure}{\numberline{(j)}{\ignorespaces {}}}{8}}
\@writefile{lof}{\contentsline {subfigure}{\numberline{(k)}{\ignorespaces {}}}{8}}
\newlabel{fig:sx11}{{6(a)}{9}}
\newlabel{sub@fig:sx11}{{(a)}{9}}
\newlabel{fig:sz11}{{6(b)}{9}}
\newlabel{sub@fig:sz11}{{(b)}{9}}
\newlabel{fig:sxz11}{{6(c)}{9}}
\newlabel{sub@fig:sxz11}{{(c)}{9}}
\newlabel{fig:vx11}{{6(d)}{9}}
\newlabel{sub@fig:vx11}{{(d)}{9}}
\newlabel{fig:vz11}{{6(e)}{9}}
\newlabel{sub@fig:vz11}{{(e)}{9}}
\newlabel{fig:phase11}{{6(f)}{9}}
\newlabel{sub@fig:phase11}{{(f)}{9}}
\newlabel{fig:Pvel11}{{6(g)}{9}}
\newlabel{sub@fig:Pvel11}{{(g)}{9}}
\newlabel{fig:Pslow11}{{6(h)}{9}}
\newlabel{sub@fig:Pslow11}{{(h)}{9}}
\newlabel{fig:group11}{{6(i)}{9}}
\newlabel{sub@fig:group11}{{(i)}{9}}
\newlabel{fig:Svel11}{{6(j)}{9}}
\newlabel{sub@fig:Svel11}{{(j)}{9}}
\newlabel{fig:Sslow11}{{6(k)}{9}}
\newlabel{sub@fig:Sslow11}{{(k)}{9}}
\@writefile{lof}{\contentsline {figure}{\numberline {6}{\ignorespaces 6(a)\hbox {} $\sigma _{xx}$, 6(b)\hbox {} $\sigma _{zz}$, 6(c)\hbox {} $\sigma _{xz}$, 6(d)\hbox {} $v_x$, 6(e)\hbox {} $v_z$, 6(f)\hbox {} phase velocity and slowness surfaces, 6(g)\hbox {} P velocity surfaces, 6(h)\hbox {} P slowness surfaces, 6(i)\hbox {} group velocity and slowness surfaces, 6(j)\hbox {} S velocity surfaces, and 6(k)\hbox {} S slowness surfaces for $\epsilon =-0.2$ and $\delta =0.6$.}}{9}}
\@writefile{lof}{\contentsline {subfigure}{\numberline{(a)}{\ignorespaces {}}}{9}}
\@writefile{lof}{\contentsline {subfigure}{\numberline{(b)}{\ignorespaces {}}}{9}}
\@writefile{lof}{\contentsline {subfigure}{\numberline{(c)}{\ignorespaces {}}}{9}}
\@writefile{lof}{\contentsline {subfigure}{\numberline{(d)}{\ignorespaces {}}}{9}}
\@writefile{lof}{\contentsline {subfigure}{\numberline{(e)}{\ignorespaces {}}}{9}}
\@writefile{lof}{\contentsline {subfigure}{\numberline{(f)}{\ignorespaces {}}}{9}}
\@writefile{lof}{\contentsline {subfigure}{\numberline{(g)}{\ignorespaces {}}}{9}}
\@writefile{lof}{\contentsline {subfigure}{\numberline{(h)}{\ignorespaces {}}}{9}}
\@writefile{lof}{\contentsline {subfigure}{\numberline{(i)}{\ignorespaces {}}}{9}}
\@writefile{lof}{\contentsline {subfigure}{\numberline{(j)}{\ignorespaces {}}}{9}}
\@writefile{lof}{\contentsline {subfigure}{\numberline{(k)}{\ignorespaces {}}}{9}}
\newlabel{fig:sx13}{{7(a)}{10}}
\newlabel{sub@fig:sx13}{{(a)}{10}}
\newlabel{fig:sz13}{{7(b)}{10}}
\newlabel{sub@fig:sz13}{{(b)}{10}}
\newlabel{fig:sxz13}{{7(c)}{10}}
\newlabel{sub@fig:sxz13}{{(c)}{10}}
\newlabel{fig:vx13}{{7(d)}{10}}
\newlabel{sub@fig:vx13}{{(d)}{10}}
\newlabel{fig:vz13}{{7(e)}{10}}
\newlabel{sub@fig:vz13}{{(e)}{10}}
\newlabel{fig:phase13}{{7(f)}{10}}
\newlabel{sub@fig:phase13}{{(f)}{10}}
\newlabel{fig:Pvel13}{{7(g)}{10}}
\newlabel{sub@fig:Pvel13}{{(g)}{10}}
\newlabel{fig:Pslow13}{{7(h)}{10}}
\newlabel{sub@fig:Pslow13}{{(h)}{10}}
\newlabel{fig:group13}{{7(i)}{10}}
\newlabel{sub@fig:group13}{{(i)}{10}}
\newlabel{fig:Svel13}{{7(j)}{10}}
\newlabel{sub@fig:Svel13}{{(j)}{10}}
\newlabel{fig:Sslow13}{{7(k)}{10}}
\newlabel{sub@fig:Sslow13}{{(k)}{10}}
\@writefile{lof}{\contentsline {figure}{\numberline {7}{\ignorespaces 7(a)\hbox {} $\sigma _{xx}$, 7(b)\hbox {} $\sigma _{zz}$, 7(c)\hbox {} $\sigma _{xz}$, 7(d)\hbox {} $v_x$, 7(e)\hbox {} $v_z$, 7(f)\hbox {} phase velocity and slowness surfaces, 7(g)\hbox {} P velocity surfaces, 7(h)\hbox {} P slowness surfaces, 7(i)\hbox {} group velocity and slowness surfaces, 7(j)\hbox {} S velocity surfaces, and 7(k)\hbox {} S slowness surfaces for $\epsilon =-0.2$ and $\delta =-0.1$.}}{10}}
\@writefile{lof}{\contentsline {subfigure}{\numberline{(a)}{\ignorespaces {}}}{10}}
\@writefile{lof}{\contentsline {subfigure}{\numberline{(b)}{\ignorespaces {}}}{10}}
\@writefile{lof}{\contentsline {subfigure}{\numberline{(c)}{\ignorespaces {}}}{10}}
\@writefile{lof}{\contentsline {subfigure}{\numberline{(d)}{\ignorespaces {}}}{10}}
\@writefile{lof}{\contentsline {subfigure}{\numberline{(e)}{\ignorespaces {}}}{10}}
\@writefile{lof}{\contentsline {subfigure}{\numberline{(f)}{\ignorespaces {}}}{10}}
\@writefile{lof}{\contentsline {subfigure}{\numberline{(g)}{\ignorespaces {}}}{10}}
\@writefile{lof}{\contentsline {subfigure}{\numberline{(h)}{\ignorespaces {}}}{10}}
\@writefile{lof}{\contentsline {subfigure}{\numberline{(i)}{\ignorespaces {}}}{10}}
\@writefile{lof}{\contentsline {subfigure}{\numberline{(j)}{\ignorespaces {}}}{10}}
\@writefile{lof}{\contentsline {subfigure}{\numberline{(k)}{\ignorespaces {}}}{10}}
\newlabel{fig:sx14}{{8(a)}{11}}
\newlabel{sub@fig:sx14}{{(a)}{11}}
\newlabel{fig:sz14}{{8(b)}{11}}
\newlabel{sub@fig:sz14}{{(b)}{11}}
\newlabel{fig:sxz14}{{8(c)}{11}}
\newlabel{sub@fig:sxz14}{{(c)}{11}}
\newlabel{fig:vx14}{{8(d)}{11}}
\newlabel{sub@fig:vx14}{{(d)}{11}}
\newlabel{fig:vz14}{{8(e)}{11}}
\newlabel{sub@fig:vz14}{{(e)}{11}}
\newlabel{fig:phase14}{{8(f)}{11}}
\newlabel{sub@fig:phase14}{{(f)}{11}}
\newlabel{fig:Pvel14}{{8(g)}{11}}
\newlabel{sub@fig:Pvel14}{{(g)}{11}}
\newlabel{fig:Pslow14}{{8(h)}{11}}
\newlabel{sub@fig:Pslow14}{{(h)}{11}}
\newlabel{fig:group14}{{8(i)}{11}}
\newlabel{sub@fig:group14}{{(i)}{11}}
\newlabel{fig:Svel14}{{8(j)}{11}}
\newlabel{sub@fig:Svel14}{{(j)}{11}}
\newlabel{fig:Sslow14}{{8(k)}{11}}
\newlabel{sub@fig:Sslow14}{{(k)}{11}}
\@writefile{lof}{\contentsline {figure}{\numberline {8}{\ignorespaces 8(a)\hbox {} $\sigma _{xx}$, 8(b)\hbox {} $\sigma _{zz}$, 8(c)\hbox {} $\sigma _{xz}$, 8(d)\hbox {} $v_x$, 8(e)\hbox {} $v_z$, 8(f)\hbox {} phase velocity and slowness surfaces, 8(g)\hbox {} P velocity surfaces, 8(h)\hbox {} P slowness surfaces, 8(i)\hbox {} group velocity and slowness surfaces, 8(j)\hbox {} S velocity surfaces, and 8(k)\hbox {} S slowness surfaces for $\epsilon =-0.2$ and $\delta =-0.3$.}}{11}}
\@writefile{lof}{\contentsline {subfigure}{\numberline{(a)}{\ignorespaces {}}}{11}}
\@writefile{lof}{\contentsline {subfigure}{\numberline{(b)}{\ignorespaces {}}}{11}}
\@writefile{lof}{\contentsline {subfigure}{\numberline{(c)}{\ignorespaces {}}}{11}}
\@writefile{lof}{\contentsline {subfigure}{\numberline{(d)}{\ignorespaces {}}}{11}}
\@writefile{lof}{\contentsline {subfigure}{\numberline{(e)}{\ignorespaces {}}}{11}}
\@writefile{lof}{\contentsline {subfigure}{\numberline{(f)}{\ignorespaces {}}}{11}}
\@writefile{lof}{\contentsline {subfigure}{\numberline{(g)}{\ignorespaces {}}}{11}}
\@writefile{lof}{\contentsline {subfigure}{\numberline{(h)}{\ignorespaces {}}}{11}}
\@writefile{lof}{\contentsline {subfigure}{\numberline{(i)}{\ignorespaces {}}}{11}}
\@writefile{lof}{\contentsline {subfigure}{\numberline{(j)}{\ignorespaces {}}}{11}}
\@writefile{lof}{\contentsline {subfigure}{\numberline{(k)}{\ignorespaces {}}}{11}}
\newlabel{eq:3}{{36}{12}}
\newlabel{eq:3m}{{37}{12}}
\newlabel{eq:ming}{{40}{12}}
\newlabel{eq:quad}{{41}{12}}
\bibcite{Yang}{1}
\bibcite{Carcione}{2}
\newlabel{eq:4}{{51}{13}}
\newlabel{fig:vphesssmall}{{9(a)}{14}}
\newlabel{sub@fig:vphesssmall}{{(a)}{14}}
\newlabel{fig:vshesssmall}{{9(b)}{14}}
\newlabel{sub@fig:vshesssmall}{{(b)}{14}}
\newlabel{fig:rhohesssmall}{{9(c)}{14}}
\newlabel{sub@fig:rhohesssmall}{{(c)}{14}}
\newlabel{fig:epshesssmall}{{9(d)}{14}}
\newlabel{sub@fig:epshesssmall}{{(d)}{14}}
\newlabel{fig:delhesssmall}{{9(e)}{14}}
\newlabel{sub@fig:delhesssmall}{{(e)}{14}}
\@writefile{lof}{\contentsline {figure}{\numberline {9}{\ignorespaces Hess synthetic velocity models: (a) $v_{PV}$, (b) $v_{SV}$, (c) $\rho $, (d) $\epsilon $, and (e) $\delta $.}}{14}}
\@writefile{lof}{\contentsline {subfigure}{\numberline{(a)}{\ignorespaces {}}}{14}}
\@writefile{lof}{\contentsline {subfigure}{\numberline{(b)}{\ignorespaces {}}}{14}}
\@writefile{lof}{\contentsline {subfigure}{\numberline{(c)}{\ignorespaces {}}}{14}}
\@writefile{lof}{\contentsline {subfigure}{\numberline{(d)}{\ignorespaces {}}}{14}}
\@writefile{lof}{\contentsline {subfigure}{\numberline{(e)}{\ignorespaces {}}}{14}}
\newlabel{fig:datahessacoustic}{{10(a)}{15}}
\newlabel{sub@fig:datahessacoustic}{{(a)}{15}}
\newlabel{fig:datahessacoustic1}{{10(b)}{15}}
\newlabel{sub@fig:datahessacoustic1}{{(b)}{15}}
\newlabel{fig:pdatahessacoustic}{{10(c)}{15}}
\newlabel{sub@fig:pdatahessacoustic}{{(c)}{15}}
\newlabel{fig:pdatahesselastic}{{10(d)}{15}}
\newlabel{sub@fig:pdatahesselastic}{{(d)}{15}}
\newlabel{fig:pdatahessviscoelastic}{{10(e)}{15}}
\newlabel{sub@fig:pdatahessviscoelastic}{{(e)}{15}}
\@writefile{lof}{\contentsline {figure}{\numberline {10}{\ignorespaces Data modeled with Hess velocity models using (a) the second-order pseudo-acoustic VTI wave equations and Ricker wavelet source, (b) the second-order pseudo-acoustic VTI wave equations and first derivative of Ricker wavelet source, (c) elastic VTI equations 22\hbox {} setting $v_{SV}=0$ and $\rho =1000$ kg/m\textsuperscript  {3}, (d) full elastic VTI, and (e) viscoelastic VTI with homogeneous $Q$. Data are scaled to the same dynamic range. All elastic data are modeled with Ricker wavelet source.}}{15}}
\@writefile{lof}{\contentsline {subfigure}{\numberline{(a)}{\ignorespaces {}}}{15}}
\@writefile{lof}{\contentsline {subfigure}{\numberline{(b)}{\ignorespaces {}}}{15}}
\@writefile{lof}{\contentsline {subfigure}{\numberline{(c)}{\ignorespaces {}}}{15}}
\@writefile{lof}{\contentsline {subfigure}{\numberline{(d)}{\ignorespaces {}}}{15}}
\@writefile{lof}{\contentsline {subfigure}{\numberline{(e)}{\ignorespaces {}}}{15}}
\newlabel{fig:ddatahessacoustic}{{11(a)}{16}}
\newlabel{sub@fig:ddatahessacoustic}{{(a)}{16}}
\newlabel{fig:ddatahesselastic}{{11(b)}{16}}
\newlabel{sub@fig:ddatahesselastic}{{(b)}{16}}
\newlabel{fig:ddatahessviscoelastic}{{11(c)}{16}}
\newlabel{sub@fig:ddatahessviscoelastic}{{(c)}{16}}
\@writefile{lof}{\contentsline {figure}{\numberline {11}{\ignorespaces Difference between the data modeled by the second-order pseudo-acoustic VTI equations with Ricker wavelet source and (a) elastic VTI equations 22\hbox {} setting $v_{SV}=0$ and $\rho =1000$ kg/m\textsuperscript  {3}, (b) full elastic VTI, and (c) viscoelastic VTI with homogeneous $Q$.}}{16}}
\@writefile{lof}{\contentsline {subfigure}{\numberline{(a)}{\ignorespaces {}}}{16}}
\@writefile{lof}{\contentsline {subfigure}{\numberline{(b)}{\ignorespaces {}}}{16}}
\@writefile{lof}{\contentsline {subfigure}{\numberline{(c)}{\ignorespaces {}}}{16}}
\newlabel{fig:ddatahessacoustic1}{{12(a)}{17}}
\newlabel{sub@fig:ddatahessacoustic1}{{(a)}{17}}
\newlabel{fig:ddatahesselastic1}{{12(b)}{17}}
\newlabel{sub@fig:ddatahesselastic1}{{(b)}{17}}
\newlabel{fig:ddatahessviscoelastic1}{{12(c)}{17}}
\newlabel{sub@fig:ddatahessviscoelastic1}{{(c)}{17}}
\@writefile{lof}{\contentsline {figure}{\numberline {12}{\ignorespaces Difference between the data modeled by the second-order pseudo-acoustic VTI equations with first derivative of Ricker wavelet and (a) elastic VTI equations 22\hbox {} setting $v_{SV}=0$ and $\rho =1000$ kg/m\textsuperscript  {3}, (b) full elastic VTI, and (c) viscoelastic VTI with homogeneous $Q$.}}{17}}
\@writefile{lof}{\contentsline {subfigure}{\numberline{(a)}{\ignorespaces {}}}{17}}
\@writefile{lof}{\contentsline {subfigure}{\numberline{(b)}{\ignorespaces {}}}{17}}
\@writefile{lof}{\contentsline {subfigure}{\numberline{(c)}{\ignorespaces {}}}{17}}
\newlabel{fig:alldatahess500}{{13(a)}{18}}
\newlabel{sub@fig:alldatahess500}{{(a)}{18}}
\newlabel{fig:alldatahess800}{{13(b)}{18}}
\newlabel{sub@fig:alldatahess800}{{(b)}{18}}
\newlabel{fig:alldatahess1100}{{13(c)}{18}}
\newlabel{sub@fig:alldatahess1100}{{(c)}{18}}
\@writefile{lof}{\contentsline {figure}{\numberline {13}{\ignorespaces Traces of different modeled data at receiver number (a) 500, (b) 800, and (c) 1170.}}{18}}
\@writefile{lof}{\contentsline {subfigure}{\numberline{(a)}{\ignorespaces {}}}{18}}
\@writefile{lof}{\contentsline {subfigure}{\numberline{(b)}{\ignorespaces {}}}{18}}
\@writefile{lof}{\contentsline {subfigure}{\numberline{(c)}{\ignorespaces {}}}{18}}
